{
  "exchangename": "poloniex",
  "apikey": "xxx",
  "apisecret": "xxx",
  "pair": "nbt_btc",
  "multipleoperators": false,
  "mailnotifications": "severe",
  "mailrecipient": "xxx@xxx.xxx",
  "bookSellwall": 0.0,
  "bookBuywall": 0.0,
  "nubitaddress": "xxx",
  "nudip": "127.0.0.1",
  "nudport": 9091,
  "rpcpass": "xxx",
  "rpcuser": "xxx"
}
